proyecto_arqui/proyecto_arqui.sim/sim_1/behav/xsim/arm_multi.vcd
$date
   Sat Jun 28 22:37:07 2025
$end

$version
  2023.2
  $dumpfile ("arm_multi.vcd") 
$end

$timescale
  1ps
$end

$scope module testbench $end
$var integer 32 ! i [31:0] $end
$var reg 1 " clk $end
$var reg 1 # reset $end
$var wire 32 $ WriteData [31:0] $end
$var wire 32 % Adr [31:0] $end
$var wire 1 & MemWrite $end
$scope module dut $end
$var wire 1 ' clk $end
$var wire 1 ( reset $end
$var wire 32 $ WriteData [31:0] $end
$var wire 32 % Adr [31:0] $end
$var wire 1 & MemWrite $end
$var wire 32 ) PC [31:0] $end
$var wire 32 * Instr [31:0] $end
$var wire 32 + ReadData [31:0] $end
$scope module arm $end
$var wire 1 ' clk $end
$var wire 1 ( reset $end
$var wire 1 & MemWrite $end
$var wire 32 % Adr [31:0] $end
$var wire 32 $ WriteData [31:0] $end
$var wire 32 + ReadData [31:0] $end
$var wire 32 , Instr [31:0] $end
$var wire 4 - ALUFlags [3:0] $end
$var wire 1 . PCWrite $end
$var wire 1 / RegWrite $end
$var wire 1 0 IRWrite $end
$var wire 1 1 AdrSrc $end
$var wire 2 2 RegSrc [1:0] $end
$var wire 2 3 ALUSrcA [1:0] $end
$var wire 2 4 ALUSrcB [1:0] $end
$var wire 2 5 ImmSrc [1:0] $end
$var wire 3 6 ALUControl [2:0] $end
$var wire 2 7 ResultSrc [1:0] $end
$scope module c $end
$var wire 1 ' clk $end
$var wire 1 ( reset $end
$var wire 32 , Instr [31:0] $end
$var wire 4 - ALUFlags [3:0] $end
$var wire 1 . PCWrite $end
$var wire 1 & MemWrite $end
$var wire 1 / RegWrite $end
$var wire 1 0 IRWrite $end
$var wire 1 1 AdrSrc $end
$var wire 2 2 RegSrc [1:0] $end
$var wire 2 3 ALUSrcA [1:0] $end
$var wire 2 4 ALUSrcB [1:0] $end
$var wire 2 7 ResultSrc [1:0] $end
$var wire 2 5 ImmSrc [1:0] $end
$var wire 3 6 ALUControl [2:0] $end
$var wire 2 8 FlagW [1:0] $end
$var wire 1 9 PCS $end
$var wire 1 : NextPC $end
$var wire 1 ; RegW $end
$var wire 1 < MemW $end
$scope module dec $end
$var wire 1 ' clk $end
$var wire 1 ( reset $end
$var wire 2 = Op [1:0] $end
$var wire 6 > Funct [5:0] $end
$var wire 4 ? Rd [3:0] $end
$var reg 2 @ FlagW [1:0] $end
$var wire 1 9 PCS $end
$var wire 1 : NextPC $end
$var wire 1 ; RegW $end
$var wire 1 < MemW $end
$var wire 1 0 IRWrite $end
$var wire 1 1 AdrSrc $end
$var wire 2 7 ResultSrc [1:0] $end
$var wire 2 3 ALUSrcA [1:0] $end
$var wire 2 4 ALUSrcB [1:0] $end
$var wire 2 5 ImmSrc [1:0] $end
$var wire 2 2 RegSrc [1:0] $end
$var reg 3 A ALUControl [2:0] $end
$var wire 1 B Branch $end
$var wire 1 C ALUOp $end
$scope module fsm $end
$var wire 1 ' clk $end
$var wire 1 ( reset $end
$var wire 2 = Op [1:0] $end
$var wire 6 > Funct [5:0] $end
$var wire 1 0 IRWrite $end
$var wire 1 1 AdrSrc $end
$var wire 2 3 ALUSrcA [1:0] $end
$var wire 2 4 ALUSrcB [1:0] $end
$var wire 2 7 ResultSrc [1:0] $end
$var wire 1 : NextPC $end
$var wire 1 ; RegW $end
$var wire 1 < MemW $end
$var wire 1 B Branch $end
$var wire 1 C ALUOp $end
$var reg 4 D state [3:0] $end
$var reg 4 E nextstate [3:0] $end
$var reg 13 F controls [12:0] $end
$upscope $end
$upscope $end
$scope module cl $end
$var wire 1 ' clk $end
$var wire 1 ( reset $end
$var wire 4 ? Cond [3:0] $end
$var wire 4 - ALUFlags [3:0] $end
$var wire 2 8 FlagW [1:0] $end
$var wire 1 9 PCS $end
$var wire 1 : NextPC $end
$var wire 1 ; RegW $end
$var wire 1 < MemW $end
$var wire 1 . PCWrite $end
$var wire 1 / RegWrite $end
$var wire 1 & MemWrite $end
$var wire 2 G FlagWrite [1:0] $end
$var wire 4 H Flags [3:0] $end
$var wire 1 I CondEx $end
$scope module flagreg32 $end
$var wire 1 ' clk $end
$var wire 1 ( reset $end
$var wire 1 J en $end
$var wire 2 K d [1:0] $end
$var reg 2 L q [1:0] $end
$upscope $end
$scope module flagreg10 $end
$var wire 1 ' clk $end
$var wire 1 ( reset $end
$var wire 1 J en $end
$var wire 2 K d [1:0] $end
$var reg 2 M q [1:0] $end
$upscope $end
$scope module cc $end
$var wire 4 ? Cond [3:0] $end
$var wire 4 H Flags [3:0] $end
$var reg 1 N CondEx $end
$var wire 1 O neg $end
$var wire 1 P zero $end
$var wire 1 Q carry $end
$var wire 1 R overflow $end
$var wire 1 S ge $end
$upscope $end
$upscope $end
$upscope $end
$scope module dp $end
$var wire 1 ' clk $end
$var wire 1 ( reset $end
$var wire 32 % Adr [31:0] $end
$var wire 32 $ WriteData [31:0] $end
$var wire 32 + ReadData [31:0] $end
$var wire 32 , Instr [31:0] $end
$var wire 4 - ALUFlags [3:0] $end
$var wire 1 . PCWrite $end
$var wire 1 / RegWrite $end
$var wire 1 0 IRWrite $end
$var wire 1 1 AdrSrc $end
$var wire 2 2 RegSrc [1:0] $end
$var wire 2 3 ALUSrcA [1:0] $end
$var wire 2 4 ALUSrcB [1:0] $end
$var wire 2 7 ResultSrc [1:0] $end
$var wire 2 5 ImmSrc [1:0] $end
$var wire 3 6 ALUControl [2:0] $end
$var wire 32 T PCNext [31:0] $end
$var wire 32 U PC [31:0] $end
$var wire 32 V ExtImm [31:0] $end
$var wire 32 W SrcA [31:0] $end
$var wire 32 X SrcB [31:0] $end
$var wire 32 Y Result [31:0] $end
$var wire 32 Z Data [31:0] $end
$var wire 32 [ RD1 [31:0] $end
$var wire 32 \ RD2 [31:0] $end
$var wire 32 ] A [31:0] $end
$var wire 32 ^ ALUResult [31:0] $end
$var wire 32 _ ALUOut [31:0] $end
$var wire 4 ` RA1 [3:0] $end
$var wire 4 a RA2 [3:0] $end
$scope module pcreg $end
$var wire 1 ' clk $end
$var wire 1 ( reset $end
$var wire 1 . en $end
$var wire 32 Y d [31:0] $end
$var reg 32 b q [31:0] $end
$upscope $end
$scope module adrmux $end
$var wire 32 U d0 [31:0] $end
$var wire 32 Y d1 [31:0] $end
$var wire 1 1 s $end
$var wire 32 % y [31:0] $end
$upscope $end
$scope module instreg $end
$var wire 1 ' clk $end
$var wire 1 ( reset $end
$var wire 1 0 en $end
$var wire 32 + d [31:0] $end
$var reg 32 c q [31:0] $end
$upscope $end
$scope module datareg $end
$var wire 1 ' clk $end
$var wire 1 ( reset $end
$var wire 32 + d [31:0] $end
$var reg 32 d q [31:0] $end
$upscope $end
$scope module ra1mux $end
$var wire 4 ? d0 [3:0] $end
$var wire 4 e d1 [3:0] $end
$var wire 1 f s $end
$var wire 4 ` y [3:0] $end
$upscope $end
$scope module ra2mux $end
$var wire 4 ? d0 [3:0] $end
$var wire 4 g d1 [15:12] $end
$var wire 1 h s $end
$var wire 4 a y [3:0] $end
$upscope $end
$scope module rf $end
$var wire 1 ' clk $end
$var wire 1 / we3 $end
$var wire 4 ` ra1 [3:0] $end
$var wire 4 a ra2 [3:0] $end
$var wire 4 ? wa3 [3:0] $end
$var wire 32 Y wd3 [31:0] $end
$var wire 32 Y r15 [31:0] $end
$var wire 32 [ rd1 [31:0] $end
$var wire 32 \ rd2 [31:0] $end
$upscope $end
$scope module regdual $end
$var wire 1 ' clk $end
$var wire 1 ( reset $end
$var wire 32 [ d1 [31:0] $end
$var wire 32 \ d2 [31:0] $end
$var reg 32 i q1 [31:0] $end
$var reg 32 j q2 [31:0] $end
$upscope $end
$scope module ext $end
$var wire 24 k Instr [23:0] $end
$var wire 2 5 ImmSrc [1:0] $end
$var reg 32 l ExtImm [31:0] $end
$upscope $end
$scope module srcamux $end
$var wire 32 ] d0 [31:0] $end
$var wire 32 U d1 [31:0] $end
$var wire 1 m s $end
$var wire 32 W y [31:0] $end
$upscope $end
$scope module srcbmux $end
$var wire 32 $ d0 [31:0] $end
$var wire 32 V d1 [31:0] $end
$var wire 32 n d2 [31:0] $end
$var wire 2 4 s [1:0] $end
$var wire 32 X y [31:0] $end
$upscope $end
$scope module alu_inst $end
$var wire 32 W SrcA [31:0] $end
$var wire 32 X SrcB [31:0] $end
$var wire 3 6 ALUControl [2:0] $end
$var reg 32 o ALUResult [31:0] $end
$var wire 4 - ALUFlags [3:0] $end
$var wire 1 p neg $end
$var wire 1 q zero $end
$var wire 1 r carry $end
$var wire 1 s overflow $end
$var wire 32 t condinvb [31:0] $end
$var wire 33 u sum [32:0] $end
$upscope $end
$scope module aluoutreg $end
$var wire 1 ' clk $end
$var wire 1 ( reset $end
$var wire 32 ^ d [31:0] $end
$var reg 32 v q [31:0] $end
$upscope $end
$scope module resultmux $end
$var wire 32 _ d0 [31:0] $end
$var wire 32 Z d1 [31:0] $end
$var wire 32 ^ d2 [31:0] $end
$var wire 2 7 s [1:0] $end
$var wire 32 Y y [31:0] $end
$upscope $end
$upscope $end
$upscope $end
$scope module mem $end
$var wire 1 ' clk $end
$var wire 1 & we $end
$var wire 32 % a [31:0] $end
$var wire 32 $ wd [31:0] $end
$var wire 32 + rd [31:0] $end
$upscope $end
$upscope $end
$upscope $end
$enddefinitions $end

#0
$dumpvars
b0 !
1"
1#
b0 $
b0 %
0&
1'
1(
bz )
bz *
b11100000010011110000000000001111 +
b0 ,
b0 -
1.
0/
10
01
b0 2
b1 3
b10 4
b0 5
b0 6
b10 7
b0 8
09
1:
0;
0<
b0 =
b0 >
b0 ?
b0 @
b0 A
0B
0C
b0 D
b1 E
b1000101001100 F
b0 G
b0 H
0I
0J
b0 K
b0 L
b0 M
0N
0O
0P
0Q
0R
1S
bz T
b0 U
b0 V
b0 W
b100 X
b100 Y
b0 Z
bx [
bx \
b0 ]
b100 ^
b0 _
b0 `
b0 a
b0 b
b0 c
b0 d
b1111 e
0f
b0 g
0h
b0 i
b0 j
b0 k
b0 l
1m
b100 n
b100 o
0p
0q
0r
0s
b100 t
b100 u
b0 v
$end

#2000
0#
0(

#5000
0"
0'

#10000
b1 !
1"
bx $
b100 %
1'
b11100010100000000010000000000101 +
b11100000010011110000000000001111 ,
0.
00
0:
b11 =
b1111 >
b1111 ?
b1 D
b110 E
b1001100 F
1I
1N
b100 U
b1111 V
b100 W
b1000 Y
b11100000010011110000000000001111 Z
b1000 [
b1000 \
bx ]
b1000 ^
b100 _
b1111 `
b1111 a
b100 b
b11100000010011110000000000001111 c
b11100000010011110000000000001111 d
b0 g
bx i
bx j
b10011110000000000001111 k
b1111 l
b1000 o
b1000 u
b100 v

#15000
0"
0'

#20000
b10 !
1"
b1000 $
1'
b110 -
b0 3
b0 4
b1 6
b0 7
b1 A
1C
b110 D
b1000 E
b1 F
b10 K
b1000 W
b1000 X
b1000 Y
b11100010100000000010000000000101 Z
b1000 [
b1000 \
b1000 ]
b0 ^
b1000 _
b11100010100000000010000000000101 d
b1000 i
b1000 j
0m
b0 o
0p
1q
1r
0s
b11111111111111111111111111110111 t
b100000000000000000000000000000000 u
b1000 v

#25000
0"
0'

#30000
b11 !
1"
1'
b0 -
1/
b0 6
1;
b0 A
0C
b1000 D
b0 E
b1000000000 F
b0 K
b0 Y
b0 [
b0 \
b10000 ^
b0 _
b10000 o
0q
0r
b1000 t
b10000 u
b0 v

#35000
0"
0'

#40000
b100 !
1"
b0 $
1'
1.
0/
10
b1 3
b10 4
b10 7
1:
0;
b0 D
b1 E
b1000101001100 F
b100 W
b100 X
b1000 Y
b1000 [
b1000 \
b0 ]
b1000 ^
b10000 _
b0 i
b0 j
1m
b1000 o
b100 t
b1000 u
b10000 v

#45000
0"
0'

#50000
b101 !
1"
b1000 $
b1000 %
1'
b11100010100000000011000000001100 +
b11100010100000000010000000000101 ,
0.
00
0:
b1 =
b101 >
b101 ?
b1 D
b111 E
b1001100 F
b1000 U
b101 V
b1000 W
b1100 Y
b0 [
bx \
b1000 ]
b1100 ^
b1000 _
b0 `
b101 a
b1000 b
b11100010100000000010000000000101 c
b10 g
b1000 i
b1000 j
b100000000010000000000101 k
b101 l
b1100 o
b1100 u
b1000 v

#55000
0"
0'

#60000
b110 !
1"
bx $
1'
b0 3
b1 4
b0 7
1C
b111 D
b1000 E
b11 F
b0 W
b101 X
b1100 Y
b11100010100000000011000000001100 Z
b0 ]
b101 ^
b1100 _
b11100010100000000011000000001100 d
b0 i
bx j
0m
b101 o
b101 t
b101 u
b1100 v

#65000
0"
0'

#70000
b111 !
1"
1'
bx -
1/
b0 4
1;
0C
b1000 D
b0 E
b1000000000 F
bx K
bx X
b101 Y
bx ^
b101 _
bx o
xp
xq
xr
xs
bx t
bx u
b101 v

#75000
0"
0'

#80000
b1000 !
1"
1'
b0 -
1.
0/
10
b1 3
b10 4
b10 7
1:
0;
b0 D
b1 E
b1000101001100 F
b0 K
b1000 W
b100 X
b1100 Y
b1100 ^
bx _
1m
b1100 o
0p
0q
0r
0s
b100 t
b1100 u
bx v

#85000
0"
0'

#90000
b1001 !
1"
b1100 %
1'
b11100010010000110111000000001001 +
b11100010100000000011000000001100 ,
0.
00
0:
b0 =
b1100 >
b1100 ?
b1 D
b111 E
b1001100 F
b1100 U
b1100 V
b1100 W
b10000 Y
b10000 ^
b1100 _
b1100 a
b1100 b
b11100010100000000011000000001100 c
b11 g
b100000000011000000001100 k
b1100 l
b10000 o
b10000 u
b1100 v

#95000
0"
0'

#100000
b1010 !
1"
1'
b0 3
b1 4
b0 7
1C
b111 D
b1000 E
b11 F
b0 W
b1100 X
b10000 Y
b11100010010000110111000000001001 Z
b1100 ^
b10000 _
b11100010010000110111000000001001 d
0m
b1100 o
b1100 t
b1100 u
b10000 v

#105000
0"
0'

#110000
b1011 !
1"
1'
bx -
1/
b0 4
1;
0C
b1000 D
b0 E
b1000000000 F
bx K
bx X
b1100 Y
bx ^
b1100 _
bx o
xp
xq
xr
xs
bx t
bx u
b1100 v

#115000
0"
0'

#120000
b1100 !
1"
1'
b0 -
1.
0/
10
b1 3
b10 4
b10 7
1:
0;
b0 D
b1 E
b1000101001100 F
b0 K
b1100 W
b100 X
b10000 Y
b10000 ^
bx _
1m
b10000 o
0p
0q
0r
0s
b100 t
b10000 u
bx v

#125000
0"
0'

#130000
b1101 !
1"
b10000 %
1'
b11100001100001110100000000000010 +
b11100010010000110111000000001001 ,
0.
00
0:
b1 =
b1001 >
b1001 ?
b1 D
b111 E
b1001100 F
b10000 U
b1001 V
b10000 W
b10100 Y
b1100 [
b10100 ^
b10000 _
b11 `
b1001 a
b10000 b
b11100010010000110111000000001001 c
b111 g
b10000110111000000001001 k
b1001 l
b10100 o
b10100 u
b10000 v

#135000
0"
0'

#140000
b1110 !
1"
1'
b10 -
b0 3
b1 4
b1 6
b0 7
b1 A
1C
b111 D
b1000 E
b11 F
b10 K
b1100 W
b1001 X
b10100 Y
b11100001100001110100000000000010 Z
b1100 ]
b11 ^
b10100 _
b11100001100001110100000000000010 d
b1100 i
0m
b11 o
1r
b11111111111111111111111111110110 t
b100000000000000000000000000000011 u
b10100 v

#145000
0"
0'

#150000
b1111 !
1"
1'
bx -
1/
b0 4
b0 6
1;
b0 A
0C
b1000 D
b0 E
b1000000000 F
bx K
bx X
b11 Y
bx ^
b11 _
bx o
xp
xq
xr
xs
bx t
bx u
b11 v

#155000
0"
0'

#160000
b10000 !
1"
1'
b0 -
1.
0/
10
b1 3
b10 4
b10 7
1:
0;
b0 D
b1 E
b1000101001100 F
b0 K
b10000 W
b100 X
b10100 Y
b10100 ^
bx _
1m
b10100 o
0p
0q
0r
0s
b100 t
b10100 u
bx v

#165000
0"
0'

#170000
b10001 !
1"
b10100 %
1'
b11100000000000110101000000000100 +
b11100001100001110100000000000010 ,
0.
00
0:
b10 =
b10 >
b10 ?
b1 D
b110 E
b1001100 F
b10100 U
b10 V
b10100 W
b11000 Y
b11 [
b101 \
b11000 ^
b10100 _
b111 `
b10 a
b10100 b
b11100001100001110100000000000010 c
b100 g
b100001110100000000000010 k
b10 l
b11000 o
b11000 u
b10100 v

#175000
0"
0'

#180000
b10010 !
1"
b101 $
1'
b0 -
b0 3
b0 4
b11 6
b0 7
b11 A
1C
b110 D
b1000 E
b1 F
b0 K
b11 W
b101 X
b11000 Y
b11100000000000110101000000000100 Z
b11 ]
b111 ^
b11000 _
b11100000000000110101000000000100 d
b11 i
b101 j
0m
b111 o
0p
0q
0r
0s
b11111111111111111111111111111010 t
b11111111111111111111111111111110 u
b11000 v

#185000
0"
0'

#190000
b10011 !
1"
1'
1/
b0 6
1;
b0 A
0C
b1000 D
b0 E
b1000000000 F
b111 Y
b1000 ^
b111 _
b1000 o
b101 t
b1000 u
b111 v

#195000
0"
0'

#200000
b10100 !
1"
1'
1.
0/
10
b1 3
b10 4
b10 7
1:
0;
b0 D
b1 E
b1000101001100 F
b10100 W
b100 X
b11000 Y
b11000 ^
b1000 _
1m
b11000 o
b100 t
b11000 u
b1000 v

#205000
0"
0'

#210000
b10101 !
1"
b11000 %
1'
b11100000100001010101000000000100 +
b11100000000000110101000000000100 ,
0.
00
0:
b0 =
b100 >
b100 ?
b1 D
b110 E
b1001100 F
b11000 U
b100 V
b11000 W
b11100 Y
b1100 [
b111 \
b11100 ^
b11000 _
b11 `
b100 a
b11000 b
b11100000000000110101000000000100 c
b101 g
b110101000000000100 k
b100 l
b11100 o
b11100 u
b11000 v

#215000
0"
0'

#220000
b10110 !
1"
b111 $
1'
b0 3
b0 4
b10 6
b0 7
b10 A
1C
b110 D
b1000 E
b1 F
b1100 W
b111 X
b11100 Y
b11100000100001010101000000000100 Z
b1100 ]
b100 ^
b11100 _
b11100000100001010101000000000100 d
b1100 i
b111 j
0m
b100 o
b111 t
b10011 u
b11100 v

#225000
0"
0'

#230000
b10111 !
1"
1'
1/
b0 6
1;
b0 A
0C
b1000 D
b0 E
b1000000000 F
b100 Y
b10011 ^
b100 _
b10011 o
b100 v

#235000
0"
0'

#240000
b11000 !
1"
1'
1.
0/
10
b1 3
b10 4
b10 7
1:
0;
b0 D
b1 E
b1000101001100 F
b11000 W
b100 X
b11100 Y
b11100 ^
b10011 _
1m
b11100 o
b100 t
b11100 u
b10011 v

#245000
0"
0'

#250000
b11001 !
1"
b11100 %
1'
b11100000010101011000000000000111 +
b11100000100001010101000000000100 ,
0.
00
0:
b0 =
b100 >
b100 ?
b1 D
b110 E
b1001100 F
b11100 U
b11100 W
b100000 Y
b100 [
b100000 ^
b11100 _
b101 `
b11100 b
b11100000100001010101000000000100 c
b101 g
b100001010101000000000100 k
b100000 o
b100000 u
b11100 v

#255000
0"
0'

#260000
b11010 !
1"
1'
b0 3
b0 4
b0 7
1C
b110 D
b1000 E
b1 F
b100 W
b111 X
b100000 Y
b11100000010101011000000000000111 Z
b100 ]
b1011 ^
b100000 _
b11100000010101011000000000000111 d
b100 i
0m
b1011 o
b111 t
b1011 u
b100000 v

#265000
0"
0'

#270000
b11011 !
1"
1'
1/
1;
0C
b1000 D
b0 E
b1000000000 F
b1011 Y
b1011 _
b1011 v

#275000
0"
0'

#280000
b11100 !
1"
1'
1.
0/
10
b1 3
b10 4
b10 7
1:
0;
b0 D
b1 E
b1000101001100 F
b11100 W
b100 X
b100000 Y
b1011 [
b100000 ^
1m
b100000 o
b100 t
b100000 u

#285000
0"
0'

#290000
b11101 !
1"
b100000 %
1'
b1010000000000000000000001100 +
b11100000010101011000000000000111 ,
0.
00
0:
b11 =
b111 >
b111 ?
b1 D
b110 E
b1001100 F
b100000 U
b111 V
b100000 W
b100100 Y
b11 \
b1011 ]
b100100 ^
b100000 _
b111 a
b100000 b
b11100000010101011000000000000111 c
b1000 g
b1011 i
b10101011000000000000111 k
b111 l
b100100 o
b100100 u
b100000 v

#295000
0"
0'

#300000
b11110 !
1"
b11 $
1'
b10 -
b0 3
b0 4
b1 6
b0 7
b11 8
b11 @
b1 A
1C
b110 D
b1000 E
b1 F
b11 G
1J
b10 K
b1011 W
b11 X
b100100 Y
b1010000000000000000000001100 Z
b1000 ^
b100100 _
b1010000000000000000000001100 d
b11 j
0m
b1000 o
1r
b11111111111111111111111111111100 t
b100000000000000000000000000001000 u
b100100 v

#305000
0"
0'

#310000
b11111 !
1"
1'
b0 -
1/
b0 6
b0 8
1;
b0 @
b0 A
0C
b1000 D
b0 E
b1000000000 F
b0 G
b10 H
0J
b0 K
b10 M
1Q
b1000 Y
b1110 ^
b1000 _
b1110 o
0r
b11 t
b1110 u
b1000 v

#315000
0"
0'

#320000
b100000 !
1"
1'
1.
0/
10
b1 3
b10 4
b10 7
1:
0;
b0 D
b1 E
b1000101001100 F
b100000 W
b100 X
b100100 Y
b100100 ^
b1110 _
1m
b100100 o
b100 t
b100100 u
b1110 v

#325000
0"
0'

#330000
b100001 !
1"
b100100 %
1'
b11100000010100111000000000000100 +
b1010000000000000000000001100 ,
0.
00
b1 2
b10 5
0:
b0 =
b1100 >
b1100 ?
b1 D
b1001 E
b1001100 F
0I
0N
b100100 U
b110000 V
b100100 W
b101000 Y
b101000 [
bx \
b101000 ^
b100100 _
b1111 `
b1100 a
b100100 b
b1010000000000000000000001100 c
1f
b0 g
b1100 k
b110000 l
b101000 o
b101000 u
b100100 v

#335000
0"
0'

#340000
b100010 !
1"
bx $
1'
b10 3
b1 4
19
1B
b1001 D
b0 E
b100001010010 F
b101000 W
b110000 X
b1011000 Y
b11100000010100111000000000000100 Z
b1011000 [
b101000 ]
b1011000 ^
b101000 _
b11100000010100111000000000000100 d
b101000 i
bx j
0m
b1011000 o
b110000 t
b1011000 u
b101000 v

#345000
0"
0'

#350000
b100011 !
1"
1'
1.
10
b1 3
b10 4
09
1:
0B
b0 D
b1 E
b1000101001100 F
b100100 W
b100 X
b101000 Y
b101000 [
b1011000 ]
b101000 ^
b1011000 _
b1011000 i
1m
b101000 o
b100 t
b101000 u
b1011000 v

#355000
0"
0'

#360000
b100100 !
1"
b101000 %
1'
b10101010000000000000000000000000 +
b11100000010100111000000000000100 ,
0.
00
b0 2
b0 5
0:
b0 =
b100 >
b100 ?
b1 D
b110 E
b1001100 F
1I
1N
b101000 U
b100 V
b101000 W
b101100 Y
b1100 [
b111 \
b101000 ]
b101100 ^
b101000 _
b11 `
b100 a
b101000 b
b11100000010100111000000000000100 c
0f
b1000 g
b101000 i
b10100111000000000000100 k
b100 l
b101100 o
b101100 u
b101000 v

#365000
0"
0'

#370000
b100101 !
1"
b111 $
1'
b10 -
b0 3
b0 4
b1 6
b0 7
b11 8
b11 @
b1 A
1C
b110 D
b1000 E
b1 F
b11 G
1J
b10 K
b1100 W
b111 X
b101100 Y
b10101010000000000000000000000000 Z
b1100 ]
b101 ^
b101100 _
b10101010000000000000000000000000 d
b1100 i
b111 j
0m
b101 o
0p
0q
1r
0s
b11111111111111111111111111111000 t
b100000000000000000000000000000101 u
b101100 v

#375000
0"
0'

#380000
b100110 !
1"
1'
b0 -
1/
b0 6
b0 8
1;
b0 @
b0 A
0C
b1000 D
b0 E
b1000000000 F
b0 G
0J
b0 K
b101 Y
b10011 ^
b101 _
b10011 o
0r
b111 t
b10011 u
b101 v

#385000
0"
0'

#390000
b100111 !
1"
1'
1.
0/
10
b1 3
b10 4
b10 7
1:
0;
b0 D
b1 E
b1000101001100 F
b101000 W
b100 X
b101100 Y
b101100 ^
b10011 _
1m
b101100 o
b100 t
b101100 u
b10011 v

#395000
0"
0'

#400000
b101000 !
1"
b101100 %
1'
b11100010100000000101000000000000 +
b10101010000000000000000000000000 ,
0.
00
b1 2
b10 5
0:
b0 =
b0 >
b0 ?
b1 D
b1001 E
b1001100 F
b101100 U
b0 V
b101100 W
b110000 Y
b110000 [
b0 \
b110000 ^
b101100 _
b1111 `
b0 a
b101100 b
b10101010000000000000000000000000 c
1f
b0 g
b0 k
b0 l
b110000 o
b110000 u
b101100 v

#405000
0"
0'

#410000
b101001 !
1"
b0 $
1'
1.
b10 3
b1 4
19
1B
b1001 D
b0 E
b100001010010 F
b110000 W
b0 X
b110000 Y
b11100010100000000101000000000000 Z
b110000 [
b110000 ]
b110000 ^
b110000 _
b11100010100000000101000000000000 d
b110000 i
b0 j
0m
b110000 o
b0 t
b110000 u
b110000 v

#415000
0"
0'

#420000
b101010 !
1"
b110000 %
1'
b11100000010101111000000000000010 +
10
b1 3
b10 4
09
1:
0B
b0 D
b1 E
b1000101001100 F
b110000 U
b110000 W
b100 X
b110100 Y
b110100 [
b110100 ^
b110000 b
1m
b110100 o
b100 t
b110100 u

#425000
0"
0'

#430000
b101011 !
1"
b110100 %
1'
b10110010100001010111000000000001 +
b11100000010101111000000000000010 ,
0.
00
b0 2
b0 5
0:
b10 =
b10 >
b10 ?
b1 D
b110 E
b1001100 F
b110100 U
b10 V
b110100 W
b111000 Y
b11100000010101111000000000000010 Z
b11 [
b101 \
b110100 ]
b111000 ^
b110100 _
b111 `
b10 a
b110100 b
b11100000010101111000000000000010 c
b11100000010101111000000000000010 d
0f
b1000 g
b110100 i
b10101111000000000000010 k
b10 l
b111000 o
b111000 u
b110100 v

#435000
0"
0'

#440000
b101100 !
1"
b101 $
1'
b1000 -
b0 3
b0 4
b1 6
b0 7
b11 8
b11 @
b1 A
1C
b110 D
b1000 E
b1 F
b11 G
1J
b0 K
b11 W
b101 X
b111000 Y
b10110010100001010111000000000001 Z
b11 ]
b11111111111111111111111111111110 ^
b111000 _
b10110010100001010111000000000001 d
b11 i
b101 j
0m
b11111111111111111111111111111110 o
1p
b11111111111111111111111111111010 t
b11111111111111111111111111111110 u
b111000 v

#445000
0"
0'

#450000
b101101 !
1"
1'
b0 -
1/
b0 6
b0 8
1;
b0 @
b0 A
0C
b1000 D
b0 E
b1000000000 F
b0 G
b1000 H
0J
b0 K
b10 L
b0 M
1O
0Q
0S
b11111111111111111111111111111110 Y
b1000 ^
b11111111111111111111111111111110 _
b1000 o
0p
b101 t
b1000 u
b11111111111111111111111111111110 v

#455000
0"
0'

#460000
b101110 !
1"
1'
1.
0/
10
b1 3
b10 4
b10 7
1:
0;
b0 D
b1 E
b1000101001100 F
b110100 W
b100 X
b111000 Y
b111000 ^
b1000 _
1m
b111000 o
b100 t
b111000 u
b1000 v

#465000
0"
0'

#470000
b101111 !
1"
b111000 %
1'
b11100000010001110111000000000010 +
b10110010100001010111000000000001 ,
0.
00
0:
b1 =
b1 >
b1 ?
b1 D
b111 E
b1001100 F
b111000 U
b1 V
b111000 W
b111100 Y
b1011 [
bx \
b111100 ^
b111000 _
b101 `
b1 a
b111000 b
b10110010100001010111000000000001 c
b111 g
b100001010111000000000001 k
b1 l
b111100 o
b111100 u
b111000 v

#475000
0"
0'

#480000
b110000 !
1"
bx $
1'
b0 3
b1 4
b0 7
1C
b111 D
b1000 E
b11 F
b1011 W
b1 X
b111100 Y
b11100000010001110111000000000010 Z
b1011 ]
b1100 ^
b111100 _
b11100000010001110111000000000010 d
b1011 i
bx j
0m
b1100 o
b1 t
b1100 u
b111100 v

#485000
0"
0'

#490000
b110001 !
1"
1'
bx -
1/
b0 4
1;
0C
b1000 D
b0 E
b1000000000 F
bx K
bx X
b1100 Y
bx ^
b1100 _
bx o
xp
xq
xr
xs
bx t
bx u
b1100 v

#495000
0"
0'

#500000
b110010 !
1"
1'
b0 -
1.
0/
10
b1 3
b10 4
b10 7
1:
0;
b0 D
b1 E
b1000101001100 F
b0 K
b111000 W
b100 X
b111100 Y
b111100 ^
bx _
1m
b111100 o
0p
0q
0r
0s
b100 t
b111100 u
bx v

#505000
0"
0'

#510000
b110011 !
1"
b111100 %
1'
b11100101100000110111000001010100 +
b11100000010001110111000000000010 ,
0.
00
0:
b10 =
b10 >
b10 ?
b1 D
b110 E
b1001100 F
b111100 U
b10 V
b111100 W
b1000000 Y
b1100 [
b101 \
b1000000 ^
b111100 _
b111 `
b10 a
b111100 b
b11100000010001110111000000000010 c
b111 g
b10001110111000000000010 k
b10 l
b1000000 o
b1000000 u
b111100 v

#515000
0"
0'

#520000
b110100 !
1"
b101 $
1'
b10 -
b0 3
b0 4
b1 6
b0 7
b1 A
1C
b110 D
b1000 E
b1 F
b10 K
b1100 W
b101 X
b1000000 Y
b11100101100000110111000001010100 Z
b1100 ]
b111 ^
b1000000 _
b11100101100000110111000001010100 d
b1100 i
b101 j
0m
b111 o
0p
0q
1r
0s
b11111111111111111111111111111010 t
b100000000000000000000000000000111 u
b1000000 v

#525000
0"
0'

#530000
b110101 !
1"
1'
b0 -
1/
b0 6
1;
b0 A
0C
b1000 D
b0 E
b1000000000 F
b0 K
b111 Y
b10001 ^
b111 _
b10001 o
0r
b101 t
b10001 u
b111 v

#535000
0"
0'

#540000
b110110 !
1"
1'
1.
0/
10
b1 3
b10 4
b10 7
1:
0;
b0 D
b1 E
b1000101001100 F
b111100 W
b100 X
b1000000 Y
b111 [
b1000000 ^
b10001 _
1m
b1000000 o
b100 t
b1000000 u
b10001 v

#545000
0"
0'

#550000
b110111 !
1"
b1000000 %
1'
b11100101100100000010000001100000 +
b11100101100000110111000001010100 ,
0.
00
b10 2
b1 5
0:
b0 =
b10100 >
b100 ?
b1 D
b10 E
b1001100 F
b1000000 U
b1010100 V
b1000000 W
b1000100 Y
b1100 [
b111 \
b111 ]
b1000100 ^
b1000000 _
b11 `
b111 a
b1000000 b
b11100101100000110111000001010100 c
b111 g
1h
b111 i
b100000110111000001010100 k
b1010100 l
b1000100 o
b1000100 u
b1000000 v

#555000
0"
0'

