proyecto_arqui/proyecto_arqui.sim/sim_1/behav/xsim/arm_multi.vcd
$date
   Sun Jun 29 02:50:15 2025
$end

$version
  2023.2
  $dumpfile ("arm_multi.vcd") 
$end

$timescale
  1ps
$end

$scope module testbench $end
$var integer 32 ! i [31:0] $end
$var reg 1 " clk $end
$var reg 1 # reset $end
$var wire 32 $ WriteData [31:0] $end
$var wire 32 % Adr [31:0] $end
$var wire 1 & MemWrite $end
$scope module dut $end
$var wire 1 ' clk $end
$var wire 1 ( reset $end
$var wire 32 $ WriteData [31:0] $end
$var wire 32 % Adr [31:0] $end
$var wire 1 & MemWrite $end
$var wire 32 ) PC [31:0] $end
$var wire 32 * Instr [31:0] $end
$var wire 32 + ReadData [31:0] $end
$scope module arm $end
$var wire 1 ' clk $end
$var wire 1 ( reset $end
$var wire 1 & MemWrite $end
$var wire 32 % Adr [31:0] $end
$var wire 32 $ WriteData [31:0] $end
$var wire 32 + ReadData [31:0] $end
$var wire 32 , Instr [31:0] $end
$var wire 4 - ALUFlags [3:0] $end
$var wire 1 . PCWrite $end
$var wire 1 / RegWrite $end
$var wire 1 0 IRWrite $end
$var wire 1 1 AdrSrc $end
$var wire 2 2 RegSrc [1:0] $end
$var wire 2 3 ALUSrcA [1:0] $end
$var wire 2 4 ALUSrcB [1:0] $end
$var wire 2 5 ImmSrc [1:0] $end
$var wire 3 6 ALUControl [2:0] $end
$var wire 2 7 ResultSrc [1:0] $end
$scope module c $end
$var wire 1 ' clk $end
$var wire 1 ( reset $end
$var wire 32 , Instr [31:0] $end
$var wire 4 - ALUFlags [3:0] $end
$var wire 1 . PCWrite $end
$var wire 1 & MemWrite $end
$var wire 1 / RegWrite $end
$var wire 1 0 IRWrite $end
$var wire 1 1 AdrSrc $end
$var wire 2 2 RegSrc [1:0] $end
$var wire 2 3 ALUSrcA [1:0] $end
$var wire 2 4 ALUSrcB [1:0] $end
$var wire 2 7 ResultSrc [1:0] $end
$var wire 2 5 ImmSrc [1:0] $end
$var wire 3 6 ALUControl [2:0] $end
$var wire 2 8 FlagW [1:0] $end
$var wire 1 9 PCS $end
$var wire 1 : NextPC $end
$var wire 1 ; RegW $end
$var wire 1 < MemW $end
$scope module dec $end
$var wire 1 ' clk $end
$var wire 1 ( reset $end
$var wire 2 = Op [1:0] $end
$var wire 6 > Funct [5:0] $end
$var wire 4 ? Rd [3:0] $end
$var wire 4 ? InstrLow [3:0] $end
$var reg 2 @ FlagW [1:0] $end
$var wire 1 9 PCS $end
$var wire 1 : NextPC $end
$var wire 1 ; RegW $end
$var wire 1 < MemW $end
$var wire 1 0 IRWrite $end
$var wire 1 1 AdrSrc $end
$var wire 2 7 ResultSrc [1:0] $end
$var wire 2 3 ALUSrcA [1:0] $end
$var wire 2 4 ALUSrcB [1:0] $end
$var wire 2 5 ImmSrc [1:0] $end
$var wire 2 2 RegSrc [1:0] $end
$var reg 3 A ALUControl [2:0] $end
$var wire 1 B Branch $end
$var wire 1 C ALUOp $end
$scope module fsm $end
$var wire 1 ' clk $end
$var wire 1 ( reset $end
$var wire 2 = Op [1:0] $end
$var wire 6 > Funct [5:0] $end
$var wire 1 0 IRWrite $end
$var wire 1 1 AdrSrc $end
$var wire 2 3 ALUSrcA [1:0] $end
$var wire 2 4 ALUSrcB [1:0] $end
$var wire 2 7 ResultSrc [1:0] $end
$var wire 1 : NextPC $end
$var wire 1 ; RegW $end
$var wire 1 < MemW $end
$var wire 1 B Branch $end
$var wire 1 C ALUOp $end
$var reg 4 D state [3:0] $end
$var reg 4 E nextstate [3:0] $end
$var reg 13 F controls [12:0] $end
$upscope $end
$upscope $end
$scope module cl $end
$var wire 1 ' clk $end
$var wire 1 ( reset $end
$var wire 4 ? Cond [3:0] $end
$var wire 4 - ALUFlags [3:0] $end
$var wire 2 8 FlagW [1:0] $end
$var wire 1 9 PCS $end
$var wire 1 : NextPC $end
$var wire 1 ; RegW $end
$var wire 1 < MemW $end
$var wire 1 . PCWrite $end
$var wire 1 / RegWrite $end
$var wire 1 & MemWrite $end
$var wire 2 G FlagWrite [1:0] $end
$var wire 4 H Flags [3:0] $end
$var wire 1 I CondEx $end
$scope module flagreg32 $end
$var wire 1 ' clk $end
$var wire 1 ( reset $end
$var wire 1 J en $end
$var wire 2 K d [1:0] $end
$var reg 2 L q [1:0] $end
$upscope $end
$scope module flagreg10 $end
$var wire 1 ' clk $end
$var wire 1 ( reset $end
$var wire 1 J en $end
$var wire 2 K d [1:0] $end
$var reg 2 M q [1:0] $end
$upscope $end
$scope module cc $end
$var wire 4 ? Cond [3:0] $end
$var wire 4 H Flags [3:0] $end
$var reg 1 N CondEx $end
$var wire 1 O neg $end
$var wire 1 P zero $end
$var wire 1 Q carry $end
$var wire 1 R overflow $end
$var wire 1 S ge $end
$upscope $end
$upscope $end
$upscope $end
$scope module dp $end
$var wire 1 ' clk $end
$var wire 1 ( reset $end
$var wire 32 % Adr [31:0] $end
$var wire 32 $ WriteData [31:0] $end
$var wire 32 + ReadData [31:0] $end
$var wire 32 , Instr [31:0] $end
$var wire 4 - ALUFlags [3:0] $end
$var wire 1 . PCWrite $end
$var wire 1 / RegWrite $end
$var wire 1 0 IRWrite $end
$var wire 1 1 AdrSrc $end
$var wire 2 2 RegSrc [1:0] $end
$var wire 2 3 ALUSrcA [1:0] $end
$var wire 2 4 ALUSrcB [1:0] $end
$var wire 2 7 ResultSrc [1:0] $end
$var wire 2 5 ImmSrc [1:0] $end
$var wire 3 6 ALUControl [2:0] $end
$var wire 32 T PCNext [31:0] $end
$var wire 32 U PC [31:0] $end
$var wire 32 V ExtImm [31:0] $end
$var wire 32 W SrcA [31:0] $end
$var wire 32 X SrcB [31:0] $end
$var wire 32 Y Result [31:0] $end
$var wire 32 Z Data [31:0] $end
$var wire 32 [ RD1 [31:0] $end
$var wire 32 \ RD2 [31:0] $end
$var wire 32 ] A [31:0] $end
$var wire 32 ^ ALUResult [31:0] $end
$var wire 32 _ ALUOut [31:0] $end
$var wire 4 ` RA1 [3:0] $end
$var wire 4 a RA2 [3:0] $end
$var wire 4 b WA3 [3:0] $end
$var wire 1 c IsMUL $end
$scope module pcreg $end
$var wire 1 ' clk $end
$var wire 1 ( reset $end
$var wire 1 . en $end
$var wire 32 Y d [31:0] $end
$var reg 32 d q [31:0] $end
$upscope $end
$scope module adrmux $end
$var wire 32 U d0 [31:0] $end
$var wire 32 Y d1 [31:0] $end
$var wire 1 1 s $end
$var wire 32 % y [31:0] $end
$upscope $end
$scope module instreg $end
$var wire 1 ' clk $end
$var wire 1 ( reset $end
$var wire 1 0 en $end
$var wire 32 + d [31:0] $end
$var reg 32 e q [31:0] $end
$upscope $end
$scope module datareg $end
$var wire 1 ' clk $end
$var wire 1 ( reset $end
$var wire 32 + d [31:0] $end
$var reg 32 f q [31:0] $end
$upscope $end
$scope module ra1mux $end
$var wire 4 g d0 [3:0] $end
$var wire 4 h d1 [3:0] $end
$var wire 1 i s $end
$var wire 4 ` y [3:0] $end
$upscope $end
$scope module ra2mux $end
$var wire 4 j d0 [3:0] $end
$var wire 4 k d1 [15:12] $end
$var wire 1 l s $end
$var wire 4 a y [3:0] $end
$upscope $end
$scope module rf $end
$var wire 1 ' clk $end
$var wire 1 / we3 $end
$var wire 4 ` ra1 [3:0] $end
$var wire 4 a ra2 [3:0] $end
$var wire 4 b wa3 [3:0] $end
$var wire 32 Y wd3 [31:0] $end
$var wire 32 Y r15 [31:0] $end
$var wire 32 [ rd1 [31:0] $end
$var wire 32 \ rd2 [31:0] $end
$upscope $end
$scope module regdual $end
$var wire 1 ' clk $end
$var wire 1 ( reset $end
$var wire 32 [ d1 [31:0] $end
$var wire 32 \ d2 [31:0] $end
$var reg 32 m q1 [31:0] $end
$var reg 32 n q2 [31:0] $end
$upscope $end
$scope module ext $end
$var wire 24 o Instr [23:0] $end
$var wire 2 5 ImmSrc [1:0] $end
$var reg 32 p ExtImm [31:0] $end
$upscope $end
$scope module srcamux $end
$var wire 32 ] d0 [31:0] $end
$var wire 32 U d1 [31:0] $end
$var wire 1 q s $end
$var wire 32 W y [31:0] $end
$upscope $end
$scope module srcbmux $end
$var wire 32 $ d0 [31:0] $end
$var wire 32 V d1 [31:0] $end
$var wire 32 r d2 [31:0] $end
$var wire 2 4 s [1:0] $end
$var wire 32 X y [31:0] $end
$upscope $end
$scope module alu_inst $end
$var wire 32 W SrcA [31:0] $end
$var wire 32 X SrcB [31:0] $end
$var wire 3 6 ALUControl [2:0] $end
$var reg 32 s ALUResult [31:0] $end
$var wire 4 - ALUFlags [3:0] $end
$var wire 1 t neg $end
$var wire 1 u zero $end
$var wire 1 v carry $end
$var wire 1 w overflow $end
$var wire 32 x condinvb [31:0] $end
$var wire 33 y sum [32:0] $end
$upscope $end
$scope module aluoutreg $end
$var wire 1 ' clk $end
$var wire 1 ( reset $end
$var wire 32 ^ d [31:0] $end
$var reg 32 z q [31:0] $end
$upscope $end
$scope module resultmux $end
$var wire 32 _ d0 [31:0] $end
$var wire 32 Z d1 [31:0] $end
$var wire 32 ^ d2 [31:0] $end
$var wire 2 7 s [1:0] $end
$var wire 32 Y y [31:0] $end
$upscope $end
$upscope $end
$upscope $end
$scope module mem $end
$var wire 1 ' clk $end
$var wire 1 & we $end
$var wire 32 % a [31:0] $end
$var wire 32 $ wd [31:0] $end
$var wire 32 + rd [31:0] $end
$upscope $end
$upscope $end
$upscope $end
$enddefinitions $end

#0
$dumpvars
b0 !
1"
1#
b0 $
b0 %
0&
1'
1(
bz )
bz *
b11100000010011110000000000001111 +
b0 ,
b0 -
1.
0/
10
01
b0 2
b1 3
b10 4
b0 5
b0 6
b10 7
b0 8
09
1:
0;
0<
b0 =
b0 >
b0 ?
b0 @
b0 A
0B
0C
b0 D
b1 E
b1000101001100 F
b0 G
b0 H
0I
0J
b0 K
b0 L
b0 M
0N
0O
0P
0Q
0R
1S
bz T
b0 U
b0 V
b0 W
b100 X
b100 Y
b0 Z
bx [
bx \
b0 ]
b100 ^
b0 _
b0 `
b0 a
b0 b
0c
b0 d
b0 e
b0 f
b0 g
b1111 h
0i
b0 j
b0 k
0l
b0 m
b0 n
b0 o
b0 p
1q
b100 r
b100 s
0t
0u
0v
0w
b100 x
b100 y
b0 z
$end

#2000
0#
0(

#5000
0"
0'

#10000
b1 !
1"
bx $
b100 %
1'
b11100010100000000010000000000101 +
b11100000010011110000000000001111 ,
0.
00
0:
b11 =
b1111 >
b1111 ?
b1 D
b110 E
b1001100 F
1I
1N
b100 U
b1111 V
b100 W
b1000 Y
b11100000010011110000000000001111 Z
b1000 [
b1000 \
bx ]
b1000 ^
b100 _
b1111 `
b1111 a
b100 d
b11100000010011110000000000001111 e
b11100000010011110000000000001111 f
b1111 g
b1111 j
b0 k
bx m
bx n
b10011110000000000001111 o
b1111 p
b1000 s
b1000 y
b100 z

#15000
0"
0'

#20000
b10 !
1"
b1000 $
1'
b110 -
b0 3
b0 4
b1 6
b0 7
b1 A
1C
b110 D
b1000 E
b1 F
b10 K
b1000 W
b1000 X
b1000 Y
b11100010100000000010000000000101 Z
b1000 [
b1000 \
b1000 ]
b0 ^
b1000 _
b11100010100000000010000000000101 f
b1000 m
b1000 n
0q
b0 s
0t
1u
1v
0w
b11111111111111111111111111110111 x
b100000000000000000000000000000000 y
b1000 z

#25000
0"
0'

#30000
b11 !
1"
1'
b0 -
1/
b0 6
1;
b0 A
0C
b1000 D
b0 E
b1000000000 F
b0 K
b0 Y
b0 [
b0 \
b10000 ^
b0 _
b10000 s
0u
0v
b1000 x
b10000 y
b0 z

#35000
0"
0'

#40000
b100 !
1"
b0 $
1'
1.
0/
10
b1 3
b10 4
b10 7
1:
0;
b0 D
b1 E
b1000101001100 F
b100 W
b100 X
b1000 Y
b1000 [
b1000 \
b0 ]
b1000 ^
b10000 _
b0 m
b0 n
1q
b1000 s
b100 x
b1000 y
b10000 z

#45000
0"
0'

#50000
b101 !
1"
b1000 $
b1000 %
1'
b11100010100000000011000000001100 +
b11100010100000000010000000000101 ,
0.
00
0:
b1 =
b101 >
b101 ?
b1 D
b111 E
b1001100 F
b1000 U
b101 V
b1000 W
b1100 Y
b0 [
bx \
b1000 ]
b1100 ^
b1000 _
b0 `
b101 a
b10 b
b1000 d
b11100010100000000010000000000101 e
b0 g
b101 j
b10 k
b1000 m
b1000 n
b100000000010000000000101 o
b101 p
b1100 s
b1100 y
b1000 z

#55000
0"
0'

#60000
b110 !
1"
bx $
1'
b0 3
b1 4
b0 7
1C
b111 D
b1000 E
b11 F
b0 W
b101 X
b1100 Y
b11100010100000000011000000001100 Z
b0 ]
b101 ^
b1100 _
b11100010100000000011000000001100 f
b0 m
bx n
0q
b101 s
b101 x
b101 y
b1100 z

#65000
0"
0'

#70000
b111 !
1"
1'
bx -
1/
b0 4
1;
0C
b1000 D
b0 E
b1000000000 F
bx K
bx X
b101 Y
bx ^
b101 _
bx s
xt
xu
xv
xw
bx x
bx y
b101 z

#75000
0"
0'

#80000
b1000 !
1"
1'
b0 -
1.
0/
10
b1 3
b10 4
b10 7
1:
0;
b0 D
b1 E
b1000101001100 F
b0 K
b1000 W
b100 X
b1100 Y
b1100 ^
bx _
1q
b1100 s
0t
0u
0v
0w
b100 x
b1100 y
bx z

#85000
0"
0'

#90000
b1001 !
1"
b1100 %
1'
b11100010010000110111000000001001 +
b11100010100000000011000000001100 ,
0.
00
0:
b0 =
b1100 >
b1100 ?
b1 D
b111 E
b1001100 F
b1100 U
b1100 V
b1100 W
b10000 Y
b10000 ^
b1100 _
b1100 a
b11 b
b1100 d
b11100010100000000011000000001100 e
b1100 j
b11 k
b100000000011000000001100 o
b1100 p
b10000 s
b10000 y
b1100 z

#95000
0"
0'

#100000
b1010 !
1"
1'
b0 3
b1 4
b0 7
1C
b111 D
b1000 E
b11 F
b0 W
b1100 X
b10000 Y
b11100010010000110111000000001001 Z
b1100 ^
b10000 _
b11100010010000110111000000001001 f
0q
b1100 s
b1100 x
b1100 y
b10000 z

#105000
0"
0'

#110000
b1011 !
1"
1'
bx -
1/
b0 4
1;
0C
b1000 D
b0 E
b1000000000 F
bx K
bx X
b1100 Y
bx ^
b1100 _
bx s
xt
xu
xv
xw
bx x
bx y
b1100 z

#115000
0"
0'

#120000
b1100 !
1"
1'
b0 -
1.
0/
10
b1 3
b10 4
b10 7
1:
0;
b0 D
b1 E
b1000101001100 F
b0 K
b1100 W
b100 X
b10000 Y
b10000 ^
bx _
1q
b10000 s
0t
0u
0v
0w
b100 x
b10000 y
bx z

#125000
0"
0'

#130000
b1101 !
1"
b10000 %
1'
b11100001100001110100000000000010 +
b11100010010000110111000000001001 ,
0.
00
0:
b1 =
b1001 >
b1001 ?
b1 D
b111 E
b1001100 F
b10000 U
b1001 V
b10000 W
b10100 Y
b1100 [
b10100 ^
b10000 _
b11 `
b1001 a
b111 b
b10000 d
b11100010010000110111000000001001 e
b11 g
b1001 j
b111 k
b10000110111000000001001 o
b1001 p
b10100 s
b10100 y
b10000 z

#135000
0"
0'

#140000
b1110 !
1"
1'
b10 -
b0 3
b1 4
b1 6
b0 7
b1 A
1C
b111 D
b1000 E
b11 F
b10 K
b1100 W
b1001 X
b10100 Y
b11100001100001110100000000000010 Z
b1100 ]
b11 ^
b10100 _
b11100001100001110100000000000010 f
b1100 m
0q
b11 s
1v
b11111111111111111111111111110110 x
b100000000000000000000000000000011 y
b10100 z

#145000
0"
0'

#150000
b1111 !
1"
1'
bx -
1/
b0 4
b0 6
1;
b0 A
0C
b1000 D
b0 E
b1000000000 F
bx K
bx X
b11 Y
bx ^
b11 _
bx s
xt
xu
xv
xw
bx x
bx y
b11 z

#155000
0"
0'

#160000
b10000 !
1"
1'
b0 -
1.
0/
10
b1 3
b10 4
b10 7
1:
0;
b0 D
b1 E
b1000101001100 F
b0 K
b10000 W
b100 X
b10100 Y
b10100 ^
bx _
1q
b10100 s
0t
0u
0v
0w
b100 x
b10100 y
bx z

#165000
0"
0'

#170000
b10001 !
1"
b10100 %
1'
b11100000000000110101000000000100 +
b11100001100001110100000000000010 ,
0.
00
0:
b10 =
b10 >
b10 ?
b1 D
b110 E
b1001100 F
b10100 U
b10 V
b10100 W
b11000 Y
b11 [
b101 \
b11000 ^
b10100 _
b111 `
b10 a
b100 b
b10100 d
b11100001100001110100000000000010 e
b111 g
b10 j
b100 k
b100001110100000000000010 o
b10 p
b11000 s
b11000 y
b10100 z

#175000
0"
0'

#180000
b10010 !
1"
b101 $
1'
b0 -
b0 3
b0 4
b11 6
b0 7
b11 A
1C
b110 D
b1000 E
b1 F
b0 K
b11 W
b101 X
b11000 Y
b11100000000000110101000000000100 Z
b11 ]
b111 ^
b11000 _
b11100000000000110101000000000100 f
b11 m
b101 n
0q
b111 s
0t
0u
0v
0w
b11111111111111111111111111111010 x
b11111111111111111111111111111110 y
b11000 z

#185000
0"
0'

#190000
b10011 !
1"
1'
1/
b0 6
1;
b0 A
0C
b1000 D
b0 E
b1000000000 F
b111 Y
b1000 ^
b111 _
b1000 s
b101 x
b1000 y
b111 z

#195000
0"
0'

#200000
b10100 !
1"
1'
1.
0/
10
b1 3
b10 4
b10 7
1:
0;
b0 D
b1 E
b1000101001100 F
b10100 W
b100 X
b11000 Y
b11000 ^
b1000 _
1q
b11000 s
b100 x
b11000 y
b1000 z

#205000
0"
0'

#210000
b10101 !
1"
b11000 %
1'
b11100000100001010101000000000100 +
b11100000000000110101000000000100 ,
0.
00
0:
b0 =
b100 >
b100 ?
b1 D
b110 E
b1001100 F
b11000 U
b100 V
b11000 W
b11100 Y
b1100 [
b111 \
b11100 ^
b11000 _
b11 `
b100 a
b101 b
b11000 d
b11100000000000110101000000000100 e
b11 g
b100 j
b101 k
b110101000000000100 o
b100 p
b11100 s
b11100 y
b11000 z

#215000
0"
0'

#220000
b10110 !
1"
b111 $
1'
b0 3
b0 4
b10 6
b0 7
b10 A
1C
b110 D
b1000 E
b1 F
b1100 W
b111 X
b11100 Y
b11100000100001010101000000000100 Z
b1100 ]
b100 ^
b11100 _
b11100000100001010101000000000100 f
b1100 m
b111 n
0q
b100 s
b111 x
b10011 y
b11100 z

#225000
0"
0'

#230000
b10111 !
1"
1'
1/
b0 6
1;
b0 A
0C
b1000 D
b0 E
b1000000000 F
b100 Y
b10011 ^
b100 _
b10011 s
b100 z

#235000
0"
0'

#240000
b11000 !
1"
1'
1.
0/
10
b1 3
b10 4
b10 7
1:
0;
b0 D
b1 E
b1000101001100 F
b11000 W
b100 X
b11100 Y
b11100 ^
b10011 _
1q
b11100 s
b100 x
b11100 y
b10011 z

#245000
0"
0'

#250000
b11001 !
1"
b11100 %
1'
b11100000010101011000000000000111 +
b11100000100001010101000000000100 ,
0.
00
0:
b0 =
b100 >
b100 ?
b1 D
b110 E
b1001100 F
b11100 U
b11100 W
b100000 Y
b100 [
b100000 ^
b11100 _
b101 `
b11100 d
b11100000100001010101000000000100 e
b101 g
b101 k
b100001010101000000000100 o
b100000 s
b100000 y
b11100 z

#255000
0"
0'

#260000
b11010 !
1"
1'
b0 3
b0 4
b0 7
1C
b110 D
b1000 E
b1 F
b100 W
b111 X
b100000 Y
b11100000010101011000000000000111 Z
b100 ]
b1011 ^
b100000 _
b11100000010101011000000000000111 f
b100 m
0q
b1011 s
b111 x
b1011 y
b100000 z

#265000
0"
0'

#270000
b11011 !
1"
1'
1/
1;
0C
b1000 D
b0 E
b1000000000 F
b1011 Y
b1011 _
b1011 z

#275000
0"
0'

#280000
b11100 !
1"
1'
1.
0/
10
b1 3
b10 4
b10 7
1:
0;
b0 D
b1 E
b1000101001100 F
b11100 W
b100 X
b100000 Y
b1011 [
b100000 ^
1q
b100000 s
b100 x
b100000 y

#285000
0"
0'

#290000
b11101 !
1"
b100000 %
1'
b1010000000000000000000001100 +
b11100000010101011000000000000111 ,
0.
00
0:
b11 =
b111 >
b111 ?
b1 D
b110 E
b1001100 F
b100000 U
b111 V
b100000 W
b100100 Y
b11 \
b1011 ]
b100100 ^
b100000 _
b111 a
b1000 b
b100000 d
b11100000010101011000000000000111 e
b111 j
b1000 k
b1011 m
b10101011000000000000111 o
b111 p
b100100 s
b100100 y
b100000 z

#295000
0"
0'

#300000
b11110 !
1"
b11 $
1'
b10 -
b0 3
b0 4
b1 6
b0 7
b11 8
b11 @
b1 A
1C
b110 D
b1000 E
b1 F
b11 G
1J
b10 K
b1011 W
b11 X
b100100 Y
b1010000000000000000000001100 Z
b1000 ^
b100100 _
b1010000000000000000000001100 f
b11 n
0q
b1000 s
1v
b11111111111111111111111111111100 x
b100000000000000000000000000001000 y
b100100 z

#305000
0"
0'

#310000
b11111 !
1"
1'
b0 -
1/
b0 6
b0 8
1;
b0 @
b0 A
0C
b1000 D
b0 E
b1000000000 F
b0 G
b10 H
0J
b0 K
b10 M
1Q
b1000 Y
b1110 ^
b1000 _
b1110 s
0v
b11 x
b1110 y
b1000 z

#315000
0"
0'

#320000
b100000 !
1"
1'
1.
0/
10
b1 3
b10 4
b10 7
1:
0;
b0 D
b1 E
b1000101001100 F
b100000 W
b100 X
b100100 Y
b100100 ^
b1110 _
1q
b100100 s
b100 x
b100100 y
b1110 z

#325000
0"
0'

#330000
b100001 !
1"
b100100 %
1'
b11100000010100111000000000000100 +
b1010000000000000000000001100 ,
0.
00
b1 2
b10 5
0:
b0 =
b1100 >
b1100 ?
b1 D
b1001 E
b1001100 F
0I
0N
b100100 U
b110000 V
b100100 W
b101000 Y
b101000 [
bx \
b101000 ^
b100100 _
b1111 `
b1100 a
b0 b
b100100 d
b1010000000000000000000001100 e
b0 g
1i
b1100 j
b0 k
b1100 o
b110000 p
b101000 s
b101000 y
b100100 z

#335000
0"
0'

#340000
b100010 !
1"
bx $
1'
b10 3
b1 4
19
1B
b1001 D
b0 E
b100001010010 F
b101000 W
b110000 X
b1011000 Y
b11100000010100111000000000000100 Z
b1011000 [
b101000 ]
b1011000 ^
b101000 _
b11100000010100111000000000000100 f
b101000 m
bx n
0q
b1011000 s
b110000 x
b1011000 y
b101000 z

#345000
0"
0'

#350000
b100011 !
1"
1'
1.
10
b1 3
b10 4
09
1:
0B
b0 D
b1 E
b1000101001100 F
b100100 W
b100 X
b101000 Y
b101000 [
b1011000 ]
b101000 ^
b1011000 _
b1011000 m
1q
b101000 s
b100 x
b101000 y
b1011000 z

#355000
0"
0'

#360000
b100100 !
1"
b101000 %
1'
b10101010000000000000000000000000 +
b11100000010100111000000000000100 ,
0.
00
b0 2
b0 5
0:
b0 =
b100 >
b100 ?
b1 D
b110 E
b1001100 F
1I
1N
b101000 U
b100 V
b101000 W
b101100 Y
b1100 [
b111 \
b101000 ]
b101100 ^
b101000 _
b11 `
b100 a
b1000 b
b101000 d
b11100000010100111000000000000100 e
b11 g
0i
b100 j
b1000 k
b101000 m
b10100111000000000000100 o
b100 p
b101100 s
b101100 y
b101000 z

#365000
0"
0'

#370000
b100101 !
1"
b111 $
1'
b10 -
b0 3
b0 4
b1 6
b0 7
b11 8
b11 @
b1 A
1C
b110 D
b1000 E
b1 F
b11 G
1J
b10 K
b1100 W
b111 X
b101100 Y
b10101010000000000000000000000000 Z
b1100 ]
b101 ^
b101100 _
b10101010000000000000000000000000 f
b1100 m
b111 n
0q
b101 s
0t
0u
1v
0w
b11111111111111111111111111111000 x
b100000000000000000000000000000101 y
b101100 z

#375000
0"
0'

#380000
b100110 !
1"
1'
b0 -
1/
b0 6
b0 8
1;
b0 @
b0 A
0C
b1000 D
b0 E
b1000000000 F
b0 G
0J
b0 K
b101 Y
b10011 ^
b101 _
b10011 s
0v
b111 x
b10011 y
b101 z

#385000
0"
0'

#390000
b100111 !
1"
1'
1.
0/
10
b1 3
b10 4
b10 7
1:
0;
b0 D
b1 E
b1000101001100 F
b101000 W
b100 X
b101100 Y
b101100 ^
b10011 _
1q
b101100 s
b100 x
b101100 y
b10011 z

#395000
0"
0'

#400000
b101000 !
1"
b101100 %
1'
b11100010100000000101000000000000 +
b10101010000000000000000000000000 ,
0.
00
b1 2
b10 5
0:
b0 =
b0 >
b0 ?
b1 D
b1001 E
b1001100 F
b101100 U
b0 V
b101100 W
b110000 Y
b110000 [
b0 \
b110000 ^
b101100 _
b1111 `
b0 a
b0 b
b101100 d
b10101010000000000000000000000000 e
b0 g
1i
b0 j
b0 k
b0 o
b0 p
b110000 s
b110000 y
b101100 z

#405000
0"
0'

#410000
b101001 !
1"
b0 $
1'
1.
b10 3
b1 4
19
1B
b1001 D
b0 E
b100001010010 F
b110000 W
b0 X
b110000 Y
b11100010100000000101000000000000 Z
b110000 [
b110000 ]
b110000 ^
b110000 _
b11100010100000000101000000000000 f
b110000 m
b0 n
0q
b110000 s
b0 x
b110000 y
b110000 z

#415000
0"
0'

#420000
b101010 !
1"
b110000 %
1'
b11100000010101111000000000000010 +
10
b1 3
b10 4
09
1:
0B
b0 D
b1 E
b1000101001100 F
b110000 U
b110000 W
b100 X
b110100 Y
b110100 [
b110100 ^
b110000 d
1q
b110100 s
b100 x
b110100 y

#425000
0"
0'

#430000
b101011 !
1"
b110100 %
1'
b10110010100001010111000000000001 +
b11100000010101111000000000000010 ,
0.
00
b0 2
b0 5
0:
b10 =
b10 >
b10 ?
b1 D
b110 E
b1001100 F
b110100 U
b10 V
b110100 W
b111000 Y
b11100000010101111000000000000010 Z
b11 [
b101 \
b110100 ]
b111000 ^
b110100 _
b111 `
b10 a
b1000 b
b110100 d
b11100000010101111000000000000010 e
b11100000010101111000000000000010 f
b111 g
0i
b10 j
b1000 k
b110100 m
b10101111000000000000010 o
b10 p
b111000 s
b111000 y
b110100 z

#435000
0"
0'

#440000
b101100 !
1"
b101 $
1'
b1000 -
b0 3
b0 4
b1 6
b0 7
b11 8
b11 @
b1 A
1C
b110 D
b1000 E
b1 F
b11 G
1J
b0 K
b11 W
b101 X
b111000 Y
b10110010100001010111000000000001 Z
b11 ]
b11111111111111111111111111111110 ^
b111000 _
b10110010100001010111000000000001 f
b11 m
b101 n
0q
b11111111111111111111111111111110 s
1t
b11111111111111111111111111111010 x
b11111111111111111111111111111110 y
b111000 z

#445000
0"
0'

#450000
b101101 !
1"
1'
b0 -
1/
b0 6
b0 8
1;
b0 @
b0 A
0C
b1000 D
b0 E
b1000000000 F
b0 G
b1000 H
0J
b0 K
b10 L
b0 M
1O
0Q
0S
b11111111111111111111111111111110 Y
b1000 ^
b11111111111111111111111111111110 _
b1000 s
0t
b101 x
b1000 y
b11111111111111111111111111111110 z

#455000
0"
0'

#460000
b101110 !
1"
1'
1.
0/
10
b1 3
b10 4
b10 7
1:
0;
b0 D
b1 E
b1000101001100 F
b110100 W
b100 X
b111000 Y
b111000 ^
b1000 _
1q
b111000 s
b100 x
b111000 y
b1000 z

#465000
0"
0'

#470000
b101111 !
1"
b111000 %
1'
b11100000010001110111000000000010 +
b10110010100001010111000000000001 ,
0.
00
0:
b1 =
b1 >
b1 ?
b1 D
b111 E
b1001100 F
b111000 U
b1 V
b111000 W
b111100 Y
b1011 [
bx \
b111100 ^
b111000 _
b101 `
b1 a
b111 b
b111000 d
b10110010100001010111000000000001 e
b101 g
b1 j
b111 k
b100001010111000000000001 o
b1 p
b111100 s
b111100 y
b111000 z

#475000
0"
0'

#480000
b110000 !
1"
bx $
1'
b0 3
b1 4
b0 7
1C
b111 D
b1000 E
b11 F
b1011 W
b1 X
b111100 Y
b11100000010001110111000000000010 Z
b1011 ]
b1100 ^
b111100 _
b11100000010001110111000000000010 f
b1011 m
bx n
0q
b1100 s
b1 x
b1100 y
b111100 z

#485000
0"
0'

#490000
b110001 !
1"
1'
bx -
1/
b0 4
1;
0C
b1000 D
b0 E
b1000000000 F
bx K
bx X
b1100 Y
bx ^
b1100 _
bx s
xt
xu
xv
xw
bx x
bx y
b1100 z

#495000
0"
0'

#500000
b110010 !
1"
1'
b0 -
1.
0/
10
b1 3
b10 4
b10 7
1:
0;
b0 D
b1 E
b1000101001100 F
b0 K
b111000 W
b100 X
b111100 Y
b111100 ^
bx _
1q
b111100 s
0t
0u
0v
0w
b100 x
b111100 y
bx z

#505000
0"
0'

#510000
b110011 !
1"
b111100 %
1'
b11100101100000110111000001010100 +
b11100000010001110111000000000010 ,
0.
00
0:
b10 =
b10 >
b10 ?
b1 D
b110 E
b1001100 F
b111100 U
b10 V
b111100 W
b1000000 Y
b1100 [
b101 \
b1000000 ^
b111100 _
b111 `
b10 a
b111100 d
b11100000010001110111000000000010 e
b111 g
b10 j
b111 k
b10001110111000000000010 o
b10 p
b1000000 s
b1000000 y
b111100 z

#515000
0"
0'

#520000
b110100 !
1"
b101 $
1'
b10 -
b0 3
b0 4
b1 6
b0 7
b1 A
1C
b110 D
b1000 E
b1 F
b10 K
b1100 W
b101 X
b1000000 Y
b11100101100000110111000001010100 Z
b1100 ]
b111 ^
b1000000 _
b11100101100000110111000001010100 f
b1100 m
b101 n
0q
b111 s
0t
0u
1v
0w
b11111111111111111111111111111010 x
b100000000000000000000000000000111 y
b1000000 z

#525000
0"
0'

#530000
b110101 !
1"
1'
b0 -
1/
b0 6
1;
b0 A
0C
b1000 D
b0 E
b1000000000 F
b0 K
b111 Y
b10001 ^
b111 _
b10001 s
0v
b101 x
b10001 y
b111 z

#535000
0"
0'

#540000
b110110 !
1"
1'
1.
0/
10
b1 3
b10 4
b10 7
1:
0;
b0 D
b1 E
b1000101001100 F
b111100 W
b100 X
b1000000 Y
b111 [
b1000000 ^
b10001 _
1q
b1000000 s
b100 x
b1000000 y
b10001 z

#545000
0"
0'

